^C:\USERS\ALEX\SOURCE\REPOS\LAB8NUM3\LAB8NUM3\DEBUG\SOURCE.OBJ
C:\USERS\ALEX\SOURCE\REPOS\LAB8NUM3\DEBUG\LAB8NUM3.EXE
C:\USERS\ALEX\SOURCE\REPOS\LAB8NUM3\DEBUG\LAB8NUM3.ILK
C:\USERS\ALEX\SOURCE\REPOS\LAB8NUM3\DEBUG\LAB8NUM3.PDB
