^C:\USERS\ALEX\SOURCE\REPOS\LAB9\LAB9\SOURCE.CPP
C:\USERS\ALEX\SOURCE\REPOS\LAB9\LAB9\DEBUG\VC141.PDB
C:\USERS\ALEX\SOURCE\REPOS\LAB9\LAB9\DEBUG\VC141.IDB
C:\USERS\ALEX\SOURCE\REPOS\LAB9\LAB9\DEBUG\SOURCE.OBJ
