^C:\USERS\ALEX\SOURCE\REPOS\LAB6\LAB 6\SOURCE.CPP
C:\USERS\ALEX\SOURCE\REPOS\LAB6\LAB 6\DEBUG\VC141.PDB
C:\USERS\ALEX\SOURCE\REPOS\LAB6\LAB 6\DEBUG\VC141.IDB
C:\USERS\ALEX\SOURCE\REPOS\LAB6\LAB 6\DEBUG\SOURCE.OBJ
