^C:\USERS\ALEX\SOURCE\REPOS\LAB8NUM2\LAB8NUM2\SOURCE.CPP
C:\USERS\ALEX\SOURCE\REPOS\LAB8NUM2\LAB8NUM2\DEBUG\VC141.PDB
C:\USERS\ALEX\SOURCE\REPOS\LAB8NUM2\LAB8NUM2\DEBUG\VC141.IDB
C:\USERS\ALEX\SOURCE\REPOS\LAB8NUM2\LAB8NUM2\DEBUG\SOURCE.OBJ
